<?xml version="1.0" encoding="utf-8"?>
<!-- Generator: Adobe Illustrator 16.0.0, SVG Export Plug-In . SVG Version: 6.00 Build 0)  -->
<!DOCTYPE svg PUBLIC "-//W3C//DTD SVG 1.1//EN" "http://www.w3.org/Graphics/SVG/1.1/DTD/svg11.dtd">
<svg version="1.1" id="Layer_1" xmlns="http://www.w3.org/2000/svg" xmlns:xlink="http://www.w3.org/1999/xlink" x="0px" y="0px"
	 width="42.002px" height="35.003px" viewBox="0 0 42.002 35.003" enable-background="new 0 0 42.002 35.003" xml:space="preserve">
<path fill="#f96233" d="M40.571,0H25.622C23.82,0,22.132,0.781,21,2.07C19.869,0.781,18.18,0,16.379,0H1.27l-0.07,0.011
	C0.516,0.112,0,0.705,0,1.389v28.355c0,0.752,0.654,1.388,1.43,1.388h14.949c1.57,0,2.913,1.114,3.141,2.599
	c0.045,0.709,0.686,1.272,1.466,1.272c0.346,0,0.675-0.121,0.924-0.335c0.086-0.063,0.161-0.139,0.225-0.224
	c0.159-0.183,0.27-0.398,0.314-0.619l0.01-0.055c0.209-1.505,1.569-2.639,3.164-2.639h14.949c0.775,0,1.431-0.636,1.431-1.388V1.389
	C42.002,0.637,41.347,0,40.571,0z M25.622,2.776h13.5v25.58h-13.5c-1.151,0-2.247,0.322-3.191,0.918V5.813
	C22.431,4.139,23.862,2.776,25.622,2.776z M2.86,2.776h13.518c1.76,0,3.191,1.361,3.191,3.036v23.47
	c-0.95-0.601-2.046-0.927-3.191-0.927H2.86V2.776z"/>
</svg>
