<?xml version="1.0" encoding="utf-8"?>
<!-- Generator: Adobe Illustrator 16.0.0, SVG Export Plug-In . SVG Version: 6.00 Build 0)  -->
<!DOCTYPE svg PUBLIC "-//W3C//DTD SVG 1.1//EN" "http://www.w3.org/Graphics/SVG/1.1/DTD/svg11.dtd">
<svg version="1.1" id="Layer_1" xmlns="http://www.w3.org/2000/svg" xmlns:xlink="http://www.w3.org/1999/xlink" x="0px" y="0px"
	 width="21.998px" height="21.993px" viewBox="0 0 21.998 21.993" enable-background="new 0 0 21.998 21.993" xml:space="preserve">

<path fill-rule="evenodd" clip-rule="evenodd" fill="#2e9764" d="M10.345,11.811h10.999c0,0,1-11-10.999-11V11.811z"/>
<path fill="#ffbb29" d="M18.126,2.703C16.354,1.144,14.067,0.148,11.454,0v2.645c2.178,0.14,3.461,0.836,4.75,1.924L18.126,2.703z M19.358,10.172
			h2.623c-0.176-2.633-1.199-4.797-2.785-6.57L17.339,5.46C18.458,6.75,19.192,8.417,19.358,10.172z M19.37,11.489
			c-0.277,4.389-3.887,7.871-8.295,7.871c-4.589,0-8.46-3.751-8.46-8.374c0-4.401,3.611-8.002,7.532-8.34V0
			C4.483,0.342,0,5.143,0,10.997c0,6.077,4.975,10.996,11.006,10.996c5.852,0,10.713-4.798,10.992-10.503H19.37z"/>

<path fill="#FFFFFF" d="M9.215,11.245c-0.008,0.123,0,0.246,0.03,0.363c0.188,0.754,0.877,1.371,1.669,1.371
	c0.67,0,1.244-0.387,1.536-0.943l3.154-5.726c0,0-5.468,3.374-5.531,3.421C9.706,10.004,9.256,10.639,9.215,11.245z"/>
</svg>
