<?xml version="1.0" encoding="utf-8"?>
<!-- Generator: Adobe Illustrator 19.2.1, SVG Export Plug-In . SVG Version: 6.00 Build 0)  -->
<svg version="1.1" xmlns="http://www.w3.org/2000/svg" xmlns:xlink="http://www.w3.org/1999/xlink" x="0px"
	 y="0px" viewBox="0 0 28 28" style="enable-background:new 0 0 28 28;" xml:space="preserve">
<circle fill="#6A3FC3" class="st0" cx="14" cy="14" r="13"/>
<path fill="#8246FF" d="M8.8,6.8c-2.4,0-4.7,0.7-6.7,1.9C1.4,10.3,1,12.1,1,14c0,7.2,5.8,13,13,13c2.4,0,4.7-0.7,6.7-1.9c0.7-1.6,1.2-3.4,1.2-5.4C21.8,12.6,16,6.8,8.8,6.8z"/>
<path fill="#531DC2" d="M6.9,14.6c-2.2,0-4.1,0.9-5.6,2.3c1.3,5.5,6,9.7,11.9,10.1c0.9-1.3,1.5-2.9,1.5-4.6C14.7,18.1,11.2,14.6,6.9,14.6z"/>
<path fill="#FFFFFF" d="M20.8,15.7l-4.6,7.1l1.3-5.8L20.8,15.7z"/>
<path fill="#FFFFFF" d="M13,7.5l-7.1,4l5.3-1L13,7.5z"/>
<path fill="#FFFFFF" d="M20.7,8c1.8,1.8,1.8,4.7,0,6.6c0,0,0,0,0,0c-1.8,1.8-4.8,1.8-6.7,0c-1.8-1.8-1.8-4.7,0-6.6c0,0,0,0,0,0C15.9,6.2,18.9,6.2,20.7,8z"/>
<path fill="#6A3FC3" fill-opacity=".4" d="M14.1,8l6.7,6.6c0.4,0.4,0.4,0.9,0,1.3c0,0,0,0,0,0L18,18.5c-0.4,0.4-1,0.4-1.3,0l-6.7-6.6c-0.4-0.4-0.4-0.9,0-1.3c0,0,0,0,0,0L12.7,8C13.1,7.6,13.7,7.6,14.1,8z"/>
<path fill="#FFFFFF" d="M18,10.6c0.4,0.4,1,1,0.7,1.3l-9.2,7.9C9.2,20,9,20,8.8,19.8c-0.1-0.2-0.1-0.5,0-0.7l7.9-9.2C17.1,9.6,17.7,10.3,18,10.6z"/>
</svg>
