<?xml version="1.0" encoding="utf-8"?>
<!-- Generator: Adobe Illustrator 16.0.0, SVG Export Plug-In . SVG Version: 6.00 Build 0)  -->
<!DOCTYPE svg PUBLIC "-//W3C//DTD SVG 1.1//EN" "http://www.w3.org/Graphics/SVG/1.1/DTD/svg11.dtd">
<svg version="1.1" id="Layer_1" xmlns="http://www.w3.org/2000/svg" xmlns:xlink="http://www.w3.org/1999/xlink" x="0px" y="0px"
	 width="92.132px" height="114px" viewBox="0 0 92.132 114" enable-background="new 0 0 92.132 114" xml:space="preserve">
<path fill="223344" d="M55.313,44.936c-0.171,0.114-0.072,0.322-0.083,0.463c0.152,0.056,0.293-0.025,0.332-0.194
	C55.594,45.07,55.459,44.838,55.313,44.936z M54.182,46.042c-0.135,0.171-0.237,0.419-0.131,0.625
	c0.06,0.114,0.258,0.213,0.367,0.181c0.296-0.089,0.396-0.469,0.363-0.722C54.736,45.791,54.297,45.894,54.182,46.042z
	 M50.498,53.539c0.017,0.034,0.128,0.125,0.149,0.165c0.24,0.451,0.355,1.039,0.608,1.438c0.172-0.711-0.01-1.354-0.308-1.798
	C50.894,53.262,50.3,53.145,50.498,53.539z M68.921,22.396l-0.612,1.503c0.486-0.144,0.961-0.646,1.067-1.093
	C69.41,22.661,68.988,22.233,68.921,22.396z M52.361,46.641c-0.142,0.083-0.264,0.235-0.322,0.372
	c-0.05,0.117-0.095,0.313,0.069,0.391c0.241,0.113,0.429,0.354,0.746,0.265c0.294-0.084,0.29-0.541,0.208-0.9
	c-0.016-0.066-0.114-0.19-0.231-0.237C52.763,46.503,52.448,46.589,52.361,46.641z M47.272,40.953
	c-0.125,0.093-0.3,0.123-0.399,0.258c-0.159,0.212-0.148,0.545-0.01,0.688c0.236,0.242,0.79,0.187,0.972-0.143
	c0.115-0.207,0.005-0.453-0.124-0.635C47.618,40.991,47.459,40.816,47.272,40.953z M67.696,24.932
	c-0.386,0.427-0.643,0.909-0.909,1.41c-0.14,0.263-0.044,0.717-0.118,0.844c0.116-0.24,0.302-0.541,0.533-0.656
	c0.466-0.231,0.909-0.928,0.58-1.819C67.753,24.628,67.647,24.821,67.696,24.932z M8.257,73.126c-0.2,0.499-0.298,1.012-0.346,1.571
	C7.856,75.34,7.6,76.245,8.029,76.914l0.326-3.437C8.364,73.388,8.394,72.788,8.257,73.126z M48.249,45.205
	c0.031-0.011-0.226,0.197-0.229,0.265c-0.015,0.297,0.136,0.715,0.5,0.743c0.372,0.028,0.775-0.205,0.807-0.487
	C49.393,45.129,48.758,45.026,48.249,45.205z M47.542,42.953c-0.092,0.062-0.117,0.225-0.207,0.313
	c-0.28,0.282,0.035,0.582,0.241,0.753c0.265,0.219,0.613,0.061,0.784-0.16c0.231-0.3,0.14-0.8-0.177-0.98
	C48.099,42.83,47.646,42.881,47.542,42.953z M49.893,46.391c-0.044,0.01-0.179,0.083-0.188,0.116
	c-0.03,0.106-0.053,0.478-0.015,0.559c0.142,0.306,0.537,0.458,0.871,0.402c0.454-0.074,0.533-0.665,0.313-0.96
	C50.668,46.231,50.212,46.315,49.893,46.391z M30.417,75.875c-0.546,0.721-1.152,1.371-1.43,2.32
	c-0.033,0.113,0.064,0.543,0.144,0.431c0.508-0.721,1.083-1.319,1.557-2.132c0.008-0.014,0.036-0.322,0.002-0.389
	C30.631,75.995,30.474,75.801,30.417,75.875z M27.583,92.167c-0.023,0.02-0.104,0.081-0.109,0.123
	c-0.043,0.282,0.135,0.571,0.254,0.682c0.563,0.518,1.11,0.958,1.443,1.569c0.087,0.16,0.094,0.596,0.422,0.427
	c-0.021-0.251-0.002-1.135-0.104-1.207c-0.548-0.383-0.818-1.085-1.42-1.397C27.964,92.31,27.782,92,27.583,92.167z M29.018,81.941
	c0.018,0.099-0.108,0.276,0.004,0.338c0.776,0.427,1.55,1.088,2.14,1.776c0.344,0.401,0.338-0.48,0.193-0.652
	c-0.545-0.646-1.154-1.233-1.875-1.695C29.332,81.614,28.953,81.591,29.018,81.941z M23.003,45.946
	c0.02-0.013,0.463-0.044,0.134,0.276c-0.499,0.485-0.676,1.514-1.162,2.253c-0.358,0.545-0.756,0.926-1.499,1.39
	c-0.038,0.023-0.295-0.33-0.15-0.598c0.593-1.092,1.542-2.155,2.527-3.252C22.803,46.07,22.913,46.002,23.003,45.946z
	 M39.186,52.285c0.283-0.134,0.605,0.126,0.651,0.446c0.14,0.959-0.358,1.793-0.972,2.25c-0.217,0.162-0.621,0.087-0.718-0.226
	c-0.316-1.015,0.282-1.886,0.891-2.322C39.075,52.407,39.164,52.295,39.186,52.285z M27.973,83.907
	c-0.255-0.06-0.366,0.175-0.478,0.287c-0.159,0.161-0.15,0.451-0.018,0.531c1.321,0.789,2.467,1.854,3.567,2.847
	c0.294-0.328,0.364-0.787,0.098-1.017c-0.746-0.641-1.552-1.344-2.194-2.179C28.507,84.485,28.168,83.952,27.973,83.907z
	 M31.557,79.003c-0.223,0.297-0.634,0.671-0.513,0.954c0.417,0.978,0.712,2.058,1.065,3.063c0.095,0.271,0.309,0.017,0.352-0.106
	c0.239-0.679,0.372-1.463,0.527-2.277c-0.354-0.343-0.547-0.94-1.017-1.482C31.949,79.127,31.796,78.683,31.557,79.003z
	 M52.747,25.205c0.637-0.139,1.195,0.028,1.426,0.438c0.297,0.529,0.256,1.224,0.056,1.813c-0.726,0.044-1.642-0.012-2.002-0.445
	c-0.389-0.469-0.283-1.136,0.104-1.488C52.472,25.392,52.633,25.23,52.747,25.205z M62.28,26.345
	c0.649-0.285,1.351,0.062,1.488,0.667c0.147,0.643-0.268,1.084-0.609,1.35c-0.351,0.273-0.913,0.246-1.375,0.313
	c-0.263,0.038-0.475-0.227-0.516-0.505c-0.045-0.304,0.038-0.646,0.283-1.005C61.699,26.952,61.866,26.528,62.28,26.345z
	 M15.532,51.587c0.832-0.06,1.488,0.315,1.979,0.743c0.872,0.762,1.565,1.649,2.086,2.788c0.081,0.178-0.171,0.523-0.376,0.378
	c-0.994-0.698-1.522-1.938-2.475-2.691c-0.397-0.313-0.953-0.314-1.372-0.497C15.092,52.185,15.339,51.601,15.532,51.587z
	 M26.907,87.358c0.092,0.29,0.293,0.609,0.232,0.938c-0.108,0.579,0.423,1.095,0.799,1.131l1.804,1.806
	c0.148,0.148,0.388,0.281,0.425,0.081c0.072-0.396,0.202-0.787,0.243-1.28c-0.986-0.685-1.976-1.357-2.752-2.277
	C27.497,87.565,27.246,87.054,26.907,87.358z M28.171,101.763c-0.09,1.202-0.345,2.227-0.733,3.188
	c0.299,0.232,0.98,0.278,1.094-0.146c0.258-0.963,0.604-2.026,0.821-3.151c0.057-0.289,0.111-0.678-0.041-0.822
	c-0.336-0.315-0.751-0.408-1.136-0.444C28.176,100.67,28.19,101.491,28.171,101.763z M64.603,16.748
	c1.398-0.367,2.457,0.494,2.929,1.432c0.136,0.269-0.151,0.715-0.387,0.91c-0.182,0.151-0.499-0.112-0.561-0.412
	c-0.067-0.332-0.375-0.636-0.679-0.812c-0.199-0.115-0.494-0.121-0.652-0.091c-0.571,0.109-1.068,0.272-1.336,0.482
	c-0.276,0.216-0.646-0.292-0.512-0.557c0.161-0.319,0.644-0.677,1.061-0.913C64.49,16.774,64.575,16.754,64.603,16.748z
	 M57.844,29.359c0.678,0.186,1.444,0.165,1.986,0.338c0.525,0.494,0.803,1.33,0.479,2.052c-0.422,0.459-0.936,0.824-1.512,1.248
	c-0.144,0.104-0.487,0.046-0.626-0.169c-0.239-0.372,0.193-0.698,0.475-0.865c0.403-0.241,0.688-0.729,0.797-1.072
	c0.123-0.391-0.404-0.548-0.606-0.529c-0.672,0.062-1.296,0.025-1.36-0.505C57.449,29.632,57.691,29.317,57.844,29.359z
	 M54.273,15.051c0.315-0.209,0.816-0.23,1.202-0.117c0.824,0.243,1.447,0.774,1.808,1.485c0.116,0.229,0.004,0.567-0.285,0.614
	c-0.483,0.078-0.821-0.384-0.891-0.531c-0.707-0.455-1.755-0.672-2.171-0.218c-0.323,0.353-0.942,0.644-1.152,0.228
	c-0.095-0.186-0.213-0.461-0.078-0.724C52.979,15.257,53.802,15.364,54.273,15.051z M30.8,51.651
	c0.29,0.015,0.851,0.554,0.803,1.035c-0.091,0.914-0.678,1.506-1.126,2.111c0.246-0.066,0.581,0.27,0.588,0.617
	c-0.579,0.303-1.375,0.415-2.026,0.524c-0.253,0.043-0.432-0.397-0.198-0.53c0.371-0.211,0.865-0.416,1.379-0.511
	c0.175-0.032,0.13-0.156,0.056-0.206c-0.489-0.327-0.611-0.868-0.454-1.515c0.265-0.403,0.454-0.902,0.637-1.338
	C30.485,51.771,30.653,51.644,30.8,51.651z M47.267,6.071c2.112-0.229,3.551,0.701,4.235,2.121c0.095,0.197,0.075,0.502,0.073,0.766
	c-0.143,0.026-0.407,0.164-0.521,0.044c-0.386-0.407-0.65-0.921-1.093-1.237c-0.678-0.016-1.137-0.354-1.672-0.527
	c-0.256-0.082-1.076-0.163-1.285-0.275c-0.216-0.114-0.11-0.398-0.121-0.604C47.063,6.284,47.192,6.08,47.267,6.071z
	 M30.285,101.104c-0.011,0.741-0.224,1.447-0.25,2.173l3.104,0.107c-0.185-0.639-0.439-1.311-0.556-2.045
	C31.824,101.12,31.051,100.885,30.285,101.104z M30.778,41.465c0.308-0.18,0.725-0.217,1.075-0.112
	c0.797,0.238,1.414,0.804,1.535,1.696c0.024,0.179-0.121,0.563-0.305,0.52c-0.482-0.111-0.978-0.476-1.333-0.596
	c-0.907,0.063-1.623,0.255-1.986,0.616c-0.203,0.202-0.813-0.218-0.616-0.622C29.437,42.379,30.094,41.868,30.778,41.465z
	 M19.479,63.528c-0.062-0.005-0.129,0.153-0.186,0.221c0.509,0.668,0.605,1.719,0.698,2.803c-0.113,0.514-0.117,1.079-0.335,1.597
	c0.016,0.02,0.308,0.075,0.372-0.01c0.666-0.87,1.248-1.903,1.943-2.741c-0.262-0.65-0.421-1.304-0.738-1.775
	C20.559,63.696,19.938,63.565,19.479,63.528z M43.344,18.514c0.282-0.295,0.51,0.019,0.646,0.181
	c0.36,0.429,0.967,0.792,1.648,0.937c0.355-0.396,0.94-0.896,1.641-0.93c0.167-0.008,0.465,0.167,0.332,0.383
	c-0.125,0.204-0.244,0.426-0.462,0.609c0.065,0.264,0.229,0.679-0.003,0.75c-1.081,0.33-1.865,1.007-2.848,1.284
	c-0.272,0.077-0.81-0.076-0.717-0.273c0.209-0.444,0.707-0.843,1.393-1.026C44.436,19.745,43.643,19.281,43.344,18.514z
	 M40.182,42.168c1.408-0.347,2.601,0.304,3.02,1.4c0.083,0.218,0.159,0.461,0.115,0.649c-0.069,0.294-0.136,0.644-0.435,0.767
	c-0.188,0.077-0.359-0.039-0.467-0.197c-0.293-0.432-0.532-0.891-0.896-1.2c-0.872-0.317-1.843,0.015-2.319,0.421
	c-0.184-0.211-0.344-0.313-0.4-0.411c-0.184-0.31,0.037-0.639,0.284-0.846C39.412,42.476,39.798,42.262,40.182,42.168z
	 M35.536,67.813c0.177-0.259,0.315,0.387,0.235,0.585c-0.563,1.386-1.495,2.726-3.598,2.368c-0.214-0.036-0.873-0.229-1.058-0.35
	c-0.648-0.425-1.203-1.047-1.585-1.765c-0.105-0.198-0.177-0.714,0.144-0.773c0.468-0.087,0.472,0.652,0.813,0.925
	c0.183,0.146,0.701,0.628,0.906,0.712c0.438,0.179,0.926,0.302,1.468,0.356c0.48-0.258,1.022-0.326,1.442-0.662
	C34.794,68.819,35.171,68.345,35.536,67.813z M45.21,35.988c-0.117,0.384-0.652,0.532-0.646,0.956
	c0.009,0.675,0.443,1.175,0.698,1.54c0.064,0.911,0.159,1.614,0.33,2.382c0.675-0.22,1.484-0.498,1.806-0.992
	c-0.369-1.588-1.119-2.889-1.739-4.016C45.561,35.681,45.269,35.795,45.21,35.988z M34.924,55.843l2.867,0.006
	c0.664,0.122,1.201,0.729,1.027,1.638c-0.234,1.223-1.418,1.707-2.155,2.142c-0.449,0.513-0.824,0.762-1.375,0.7
	c-0.32-0.036-0.676-0.678-0.411-0.82c1.116-0.6,2.133-1.474,3.15-2.175c0.17-0.118,0.21-0.66-0.093-0.671l-2.852-0.115
	C34.839,56.535,34.591,55.846,34.924,55.843z M27.875,78.537c-0.041,0.018-0.179,0.066-0.224,0.121
	c-0.579,0.71-1.187,1.419-1.697,2.516c0.033,0.899,0.256,1.96,0.585,2.97c0.895-1.403,1.497-2.826,2.185-4.135
	c0.15-0.287-0.276-0.753-0.399-1.046C28.228,78.734,28.111,78.433,27.875,78.537z M25.854,96.014
	c0.191-0.056,0.393,0.055,0.457,0.159c0.127,0.21,0.011,0.475-0.242,0.596c-1.855,0.891-3.491,2.02-5.149,3.142
	c-0.591,0.4-1.099,0.863-1.692,1.223c-0.285,0.173-0.814,0.336-1.237,0.09c-0.236-0.137-0.358-0.424-0.187-0.719
	c0.135-0.232,0.677-0.062,0.877-0.222C20.825,98.57,22.91,96.859,25.854,96.014z M51.942,21.475
	c0.188-0.073,0.352-0.014,0.415,0.176c0.081,0.241-0.035,0.549,0.106,0.772c0.155,0.245,0.656-0.298,0.759-0.212
	c0.786,0.652,1.805,0.975,2.026,1.957c0.079,0.354,0.272,0.729,0.075,1.074c-0.08,0.141-0.468,0.16-0.485-0.11
	c-0.045-0.727-0.647-1.23-1.631-1.445c-0.882,0.11-1.491,1.041-1.79,2.077c-0.086,0.3,0.165,0.813-0.365,0.789
	c-0.509-0.023-0.856-0.558-1.059-1.01c-0.159-0.354-0.767-0.612-0.628-0.845c0.205-0.347,0.595-0.32,0.821-0.117
	c0.113,0.1,0.225,0.264,0.354,0.209c-0.131-0.559-0.166-1.225-0.221-1.793c-0.02-0.204,0.278-0.415,0.639-0.238
	c0.113,0.055,0.018,0.441,0.347,0.508c0.25-0.433,0.355-0.967,0.397-1.534C51.71,21.665,51.908,21.488,51.942,21.475z
	 M34.426,72.141c-1.15,1.006-2.398,1.694-3.54,2.31c0.004,0.304,0.04,0.511,0.135,0.674c0.597,1.035,1.051,2.282,1.689,3.53
	c0.074,0.145,0.127,0.669,0.558,0.861C33.802,77.246,34.047,74.747,34.426,72.141z M54.209,33.739
	c0.565,0.26,1.05,0.812,1.578,1.196c0.244,0.177,0.804-0.235,1.179-0.229c0.266,0.005,0.134,0.395,0.362,0.616
	c0.26-0.234,0.987-0.54,1.341-0.005c0.094,0.142,0.415-0.09,0.588-0.301c0.17-0.208,0.446-0.517,0.785-0.371
	c0.159,0.069,0.156,0.396-0.008,0.574c-0.953,1.04-2.063,1.928-2.863,3.117c-0.59,0.434-1.679,0.23-1.884-0.413
	c-0.104-0.326-0.383-0.607-0.471-0.938c-0.05-0.185,0.063-0.801-0.021-0.994c-0.249-0.57-0.622-1.078-1.035-1.498
	c-0.145-0.147-0.066-0.479,0.155-0.599C53.954,33.875,54.121,33.698,54.209,33.739z M48.408,9.198
	c0.11-0.133,0.453,0.113,0.616,0.275c0.816,0.808,0.929,2.433,0.767,3.955c-0.129,1.217-0.76,1.83-1.423,2.471
	c-0.213,0.205-0.461,0.403-0.621,0.676c-0.057,0.097,0.162,0.211,0.175,0.268c0.154,0.644-0.054,1.12-0.45,1.33
	c-0.043,0.022-0.354-0.025-0.422,0.025c-0.283,0.217-0.526,0.524-0.879,0.652c-0.118,0.043-0.392,0.116-0.395-0.035
	c-0.009-0.422,0.412-0.905,0.877-0.732c0.05-0.224,0.009-0.442-0.19-0.56c-0.509-0.299-0.979-0.813-1.141-1.395
	c1.779-0.843,2.813-2.528,3.177-4.712c0.106-0.635-0.021-1.305-0.209-1.9C48.278,9.477,48.332,9.29,48.408,9.198z M22.14,34.96
	c0.069-0.14,0.349-0.144,0.46,0.001c0.259,0.336,0.495,0.746,0.595,1.134c1.05,4.069-0.207,8.688-2.665,10.59
	c-0.228,0.177-0.434,0.537-0.688,0.402c-0.33-0.176-0.212-0.712-0.071-1.065c1.051-2.628,2.688-5.148,2.579-8.7
	c-0.022-0.733-0.148-1.475-0.315-2.052C22.005,35.174,22.115,35.008,22.14,34.96z M23.049,69.03c0.014,0.1,0.178,0.379,0.199,0.479
	l1.882,8.359c0.124,0.566,0.176,1.295,0.479,1.637c0.245-0.262,0.455-0.473,0.635-0.689c1.018-1.223,2.127-2.498,3.026-3.916
	c-1.602-0.575-2.795-1.473-3.717-2.478c-1.065-1.162-1.825-2.758-2.44-4.398C23.049,68.238,23.022,68.835,23.049,69.03z
	 M60.123,86.456c-0.348,0.626-0.713,1.226-1.184,1.857c-0.69,2.31-1.454,4.638-2.059,7.174c0.256,0.038,0.482-0.136,0.555-0.323
	c0.359-0.939,0.88-1.731,1.354-2.649c0.086-0.167,0.462-0.184,0.596,0.164c0.198,0.514,0.091,1.674,0.249,2.439
	c0.241-0.09,0.343-0.214,0.378-0.333c0.062-0.214-0.048-0.973,0.031-1.169c0.077-0.192,0.375-0.498,0.488-0.381
	c0.351,0.363,0.42,0.846,0.415,1.407c-0.002,0.163,0.223,0.31,0.371,0.16c0.267-0.27,0.065-0.795,0.371-1.174
	c0.121-0.15,0.354-0.119,0.488-0.007c0.154,0.129,0.03,0.442,0.098,0.636c0.043,0.123,0.138,0.28,0.313,0.262
	c0.144-1.312,0.406-2.709,0.384-4.165c-0.5-0.269-0.276-0.771-0.457-1.226c-0.127-0.322-0.1-0.807,0.046-1.218
	c0.1-0.281,0.253-0.782,0.032-0.866C61.832,86.755,61.005,86.557,60.123,86.456z M36.015,97.066
	c-0.234,0.097-0.467,0.209-0.691,0.321c-1.602,0.802-2.209,4.322-0.676,6.096c0.172,0.465,0.447,1.273,1.236,1.507
	c0.401,0.118,0.924-0.026,1.361-0.247c1.421-0.716,3.492-1.388,5.615-0.979c0.161,0.031,0.284-0.345,0.274-0.55
	c-0.173-3.56-2.354-5.227-5.067-6.1C37.408,96.902,36.608,96.822,36.015,97.066z M15.177,85.793
	c-0.118,0.386-0.439,0.574-0.538,0.872c-1.148,3.465-2.43,6.818-3.569,10.36c0.585,0.094,0.953-0.286,1.376-0.382
	c0.432-0.099,0.756,0.272,0.937,0.64c0.062,0.126-0.012,0.409,0.209,0.609c0.359,0.325,0.895,0.251,1.305,0.532
	c0.203,0.139,0.405,0.351,0.261,0.753c1.419-1.762,3.174-3.047,4.686-4.659l-4.019-7.723C15.644,86.456,15.5,85.777,15.177,85.793z
	 M67.839,68.099c-1.633,0.818-3.383,1.474-5.279,1.92c-0.037,0.319,0.046,0.655,0.14,0.993c0.351,1.252,0.153,2.57-0.229,3.566
	c-0.601,1.566-1.004,3.394-1.207,5.382c-0.167,1.64-0.545,3.144-0.753,4.72l2.855,1.285l2.648-4.928
	C68.126,77.906,69.29,72.841,67.839,68.099z M30.422,104.31c-0.353-0.001-0.567,0.351-0.813,0.68
	c-0.167,0.225-0.205,0.62-0.39,0.959c-0.688-0.06-1.265,0.005-1.831,0.298c-0.333,0.172-0.228,0.995-0.528,1.017
	c-3.185,0.225-6,0.864-9.062,1.165c-0.07,0.007-0.862,0.151-0.354,0.261l14.77,3.112c0.697,0.277,1.655,0.473,2.474,0.28
	c1.313,0.425,2.94,0.248,3.977-0.184c1.598-0.666,2.507-2.029,3.312-3.423c0.608-1.055,1.074-2.293,1.094-3.879
	c-0.144,0-0.527-0.027-0.655-0.018c-2.362,0.166-4.257,0.948-6.132,1.626c-1.072-0.433-1.949-1.054-2.494-1.822
	C32.69,104.233,31.519,104.315,30.422,104.31z M60.721,66.01c-0.524,0.926-1.139,1.719-1.909,2.354
	c-0.531,0.438-1.18,0.714-1.899,0.891c-3.933,0.967-6.9,2.846-8.676,5.959c0.161,1.767,0.427,3.514,0.691,5.342
	c0.202,0.368,0.481,0.948,1.029,0.979c0.197,0.011,0.5,0.32,0.629,0.616l0.861,2.297l5.55,5.384
	c0.186,0.177,0.185-0.193,0.276-0.321c1.782-2.487,2.713-5.897,3.155-9.794c0.171-1.508,0.326-3.187,0.674-4.453
	c0.316-1.154,0.973-2.027,0.741-3.541c-0.243-1.587-0.742-3.168-0.853-5.018C60.978,66.482,61.072,66.075,60.721,66.01z
	 M37.429,70.353c-0.641,0.325-1.16,0.704-1.725,1.097c-0.673,0.158-0.883,1.132-0.644,1.761c-0.748,8.23-2.73,15.152-4.745,21.987
	c0.65,0.413,1.356,0.794,2.267,0.825c0.572,0.281,1.409,0.346,1.973,0.747c0.222,0.158,0.464-0.549,0.698-0.886
	c3.659-5.271,7.403-10.406,9.763-16.99c0.09-0.251,0.429-0.396,0.654-0.257c0.176,0.109,0.143,0.354,0.097,0.496
	c-1.165,3.602-2.693,6.885-4.471,9.898c-1.075,1.822-2.318,3.424-3.448,5.203c-0.365,0.576-0.937,1.033-1.185,1.748
	c0.641-0.037,1.316,0.145,1.573-0.016l2.667-4.472l3.413-5.84c0.272,0.02,0.496-0.083,0.592,0.101c0.12,0.23,0.417,0.574,0.289,0.76
	c-0.854,1.248-1.542,2.721-2.353,4.115c-0.104,0.18,0.355,0.156,0.51,0.094l5.724-2.339c0.188,0.189,0.494,0.354,0.434,0.505
	c-0.149,0.368-0.522,0.751-0.578,0.909c-0.157-0.191-0.664-0.177-0.97-0.033c-1.45,0.685-2.82,1.499-4.4,2.091
	c-0.005,0.063-0.039,0.217,0.101,0.285c2.283,1.123,4.237,2.582,6.139,4.18c1.428-0.067,2.854-0.183,4.271-0.363
	c0.559-0.071,1.178-0.092,1.711-0.335c0.325-1.335,0.784-2.643,1.026-4.085c0.025-0.156-0.446-0.274-0.829-0.676
	c-1.787-1.873-3.828-3.898-5.868-5.64c-0.463-0.86-0.377-2.032-0.594-2.849c-0.193,0-0.486-0.018-0.513,0
	c-0.514,0.346-0.959,0.752-1.322,1.194c-0.542,0.659-1.15,1.327-2.081,1.551c-0.192,0.046-0.502-0.421-0.469-0.645
	c0.055-0.36,0.386-0.537,0.637-0.711c0.807-0.559,1.563-1.248,1.961-2.124c0.115-0.255-0.41-0.521-0.45-0.836
	c-0.221-1.733-0.409-3.533-0.514-5.434c-1.214-0.258-2.236-0.753-3.295-1.183c-1.512-0.613-2.808-1.668-4.353-2.658
	c1.258,2.696,2.037,5.634,3.115,8.159c-1.226,0.62-2.195,1.399-3.217,2.101c-0.542,0.372-1.213,0.68-1.882,0.854
	c-0.179-0.252-0.324-0.676-0.169-0.732c1.569-0.569,2.707-1.725,4.086-2.62c-1.142-2.816-1.772-6.096-3.277-8.637
	C37.729,70.571,37.671,70.23,37.429,70.353z M15.092,63.031c-1.165,0.53-2.141,0.984-2.712,1.861
	c-0.617,0.949-1.084,2.063-1.557,3.142c-0.635,1.447-1.967,2.244-2.766,3.526c-0.478,0.445-0.863,1.09-1.075,1.455
	c-0.12,1.089-0.202,2.131,0.168,2.928c0.013-0.634-0.163-1.104-0.089-1.448l0.438-1.771c0.097-0.344,0.209-0.992,0.824-0.857
	c0.281,0.062,0.113,0.443,0.14,0.791c0.194-0.365,0.405-0.688,0.589-1.017c0.119-0.215,0.581-0.156,0.481,0.163
	c-0.595,1.895-0.592,4.599-0.404,7.112c0.017,0.226,0.09,0.604-0.16,0.783c-0.255,0.183-0.558-0.192-0.582-0.431
	c-0.079-0.771-0.175-1.654-0.349-2.525c-0.884,2.495-1.798,4.765-2.505,7.278c-1.239,4.404-2.751,8.38-3.497,13.167
	c-0.259,1.666-0.956,3.213-0.734,5.423c-0.45,1.676,0.639,3.163,1.792,4.027c0.683-0.084,1.297,0.242,1.74,0.386
	c2.991,0.109,5.662-0.082,8.364-0.19c4.77-0.191,8.762-1.066,13.133-1.637c0.484-1.486,1.002-2.925,1.109-4.962
	c0.013-0.227-0.728-0.106-0.981-0.498c-0.202-0.311,0.137-0.552,0.425-0.766c-0.422,0.087-0.754,0.11-1.043,0.221
	c-1.67,0.634-3.003,1.603-4.672,2.195c-0.141-0.172-0.431-0.311-0.344-0.436c0.423-0.613,1.021-0.961,1.625-1.323
	c1.34-0.803,2.853-1.841,5.013-1.472c0.168,0.029,0.326,0.201,0.277,0.407c-0.106,0.453-0.648,0.288-1.016,0.493
	c1.965,0.468,3.944,0.834,5.919,1.197c0.132-1.113,0.59-2.008,0.955-2.782c-0.778-0.253-1.694-0.267-2.387-0.578
	c-1.68-0.754-3.279-1.702-5.228-2.278c-0.922-0.606-2.346-1.324-3.681-0.798c-0.569,0.437-1.156,0.75-1.51,1.284
	c-1.436,0.692-2.377,1.921-3.454,2.961c-0.536,0.519-1.002,1.154-1.332,1.894c0.057,0.057,0.353,0.132,0.49-0.007
	c0.861-0.863,1.813-1.836,3.019-2.493c0.204-0.11,0.245-0.329,0.196-0.547c0.239,0.359,0.205-0.259,0.446-0.103
	c0.927-0.838,1.912-1.668,3.354-1.935c0.366-0.067,0.584,0.439,0.496,0.781c-0.079,0.306-0.563-0.085-0.752,0.04
	c-2.081,1.366-4.028,2.872-5.71,4.683c-0.241,0.259-0.512,0.67-0.985,0.619c-0.466-0.051-0.912-0.394-1.333-0.751
	c-0.215-0.184,0.018-0.674-0.165-1.003c-0.298,0.103-0.594,0.118-0.677,0.138c-0.838,0.201-1.43-0.617-1.443-1.189
	c-0.006-0.231-0.364-0.318-0.604-0.217c-2.933,1.234-5.171,3.208-7.663,4.824c-0.115,0.075,0.028,0.432-0.101,0.595
	c-0.311,0.396-1.092,0.071-1.099-0.427c-0.007-0.467,0.325-0.896,0.688-1.163c1.011-0.743,1.904-1.617,2.955-2.344
	c0.989-0.685,2.189-1.159,2.731-2.243C9.961,97,9.773,96.329,9.88,95.989c0.965-3.075,2.228-6.021,3.358-9.111
	c0.359-0.984,0.734-1.972,1.583-2.475c-0.332-1.325-0.722-2.746-0.724-4.416c0-0.491,0.065-1.016,0.246-1.369
	c0.102-0.198,0.554-0.21,0.55,0.099c-0.015,1.236,0.167,2.357,0.464,3.405c1.214,4.29,3.161,7.785,4.953,11.504
	c0.083,0.172,0.296,0.305,0.398,0.211c0.579-0.532,1.263-0.884,2.027-1.241c0.382,0.073,0.839,0.293,1.428,0.218
	c0.648,0.459,1.396,0.754,2.356,0.971c-0.164-1.409-0.3-2.823-0.343-4.24c-0.019-0.605,0.048-1.083-0.14-1.363
	c-0.835-5.613-1.899-10.825-3.111-15.943c-0.09-0.379-0.279-0.722-0.275-0.808c0.059-1.354-0.355-2.321-0.262-3.242
	c0.031-0.307,0.258-0.388,0.35-0.351c0.379,0.151,0.16-0.387,0.177-0.529c-0.209-0.17-0.055-0.493-0.334-0.593
	c-0.373-0.134-0.635,0.279-0.739,0.532c-0.336,0.812-0.945,1.333-1.17,2.28c-0.042,0.179-0.19,0.372-0.319,0.411
	c-0.129-0.158-0.379-0.27-0.328-0.521c-0.341-0.244-0.794-0.194-1.225-0.201c-0.174-0.003-0.956-0.328-0.663,0.327
	c0.349,0.777,0.414,1.897,1.173,2.263c0.341,0.164,0.584,0.565,0.549,0.875c-0.055,0.48-0.625,0.691-0.722,1.041
	c-0.491,1.796-1.094,3.597-1.732,5.287c1.942,1.284,4.007,2.281,5.482,3.891c0.225,0.244,0.197,0.447,0.099,0.751
	c-0.061,0.188-0.382,0.126-0.554,0.022c-0.929-0.561-1.713-1.271-2.615-1.837c-1.325-0.832-2.738-1.559-3.729-2.861
	c0.983-1.588,1.631-3.576,2.159-5.391c-0.658-0.652-1.137-1.37-1.82-1.992c-0.403-0.636-0.817-1.458-1.353-1.984
	c-0.521,0.369-0.873,0.75-1.1,1.21c-0.955,1.933-1.36,4.616-0.978,7.143c0.03,0.195-0.356,0.319-0.522,0.28
	c-0.158-0.036-0.644-0.389-0.692-0.533c-0.465-1.365-0.563-3.32-0.838-4.885c-0.264,0.084-0.318,0.313-0.347,0.477
	c-0.309,1.791-0.496,3.789-0.582,5.675c-0.014,0.318-0.635,0.034-0.672-0.26c-0.149-1.171,0.001-2.465,0.131-3.604
	c0.203-1.763,0.57-3.479,1.564-4.343c0.199-0.173,0.601-0.136,0.599,0.009c-0.017,1.354,0.035,2.827,0.256,3.953
	c0.031,0.156,0.287,0.159,0.288-0.001c0.001-0.857,0.246-1.551,0.369-2.284c0.29-1.72,1.057-3.037,2.34-3.889
	c0.193-0.128,0.618,0.075,0.792,0.388c0.793,1.423,1.749,2.72,2.877,3.729c0.11,0.1,0.503-0.059,0.322-0.29
	c-0.237-0.306-0.589-0.594-0.78-0.979c-0.798-1.611-1.519-3.419-1.729-5.545c-0.025-0.257-0.119-0.584-0.001-0.773
	c0.088-0.142,0.29-0.05,0.363,0.034c0.612,0.712,0.717,1.848,0.974,2.918c0.049,0.205,0.417,0.219,0.505,0.047
	c0.51-0.994,0.694-2.655,0.303-3.897c-0.085-0.269-0.266-0.646-0.521-0.632C16.822,63.625,15.886,63.33,15.092,63.031z
	 M84.271,90.984l-5.931,0.974c-4.888,1.027-9.984,1.844-14.576,3.376c-6.648,1.56-14.39,2.799-22.089,1.97
	c-0.118,0.238,0.115,0.402,0.203,0.474c2.342,1.883,4.041,6.551,2.319,10.193c-0.735,2.144-2.262,3.494-4.082,4.536
	c-0.143,0.081-0.208,0.229-0.154,0.421c10.069-1.32,19.494-3.319,29.328-4.91c3.934-0.887,8.775-0.886,12.779-1.674
	c2.371-0.467,4.513-1.054,6-2.338c0.597-0.515,1.121-1.1,1.618-1.734c1.562-1.998,1.715-6.601,0.169-8.841
	c-0.387-0.56-0.838-1.047-1.393-1.438C87.392,91.234,86.047,90.677,84.271,90.984z M43.283,30.806
	c-0.104-0.249-0.221-0.627-0.415-0.731c-2.179-1.169-3.313-5.439-1.659-7.954c0.077-0.117-0.08-0.443-0.21-0.674
	c-0.279-0.5-0.088-1.048,0.223-1.48c0.406,0.104,0.463,0.644,0.674,0.976c0.167,0.264,0.45,0.449,0.641,0.671
	c0.416,0.481,1.242,0.621,2.135,0.571c0.002,0.533-0.282,0.853-0.633,0.982c-0.709,0.261-1.667,0.007-2.107-0.271
	c-0.151-0.097-0.434,0.283-0.319,0.39c-0.938,3.296,0.85,6.06,3.245,6.945c0.193,0.071,0.574,0.112,0.512,0.308
	c-0.1,0.307-0.406,0.328-0.577,0.541c0.206,0.464,0.389,0.978,0.713,1.336c0.14,0.502,0.806,0.609,1.214,0.542
	c0.341-0.056,0.394,0.393,0.321,0.628c-0.019,0.062-0.25,0.278-0.313,0.36c-0.19,0.246-0.669,0.494-0.486,0.846
	c1.015,1.956,1.915,4.07,2.63,6.34c0.31,0.98,0.511,1.914,0.595,3.05c0.016,0.217,0.393,0.892,0.744,1.038
	c0.506,0.21,1.174,0.411,1.48,0.956c0.143,0.253,0.672-0.265,1.07-0.338c0.737-0.136,1.39-0.574,1.31-1.467
	c1.702-2.215,4.092-3.521,6.258-5.082c1.759-1.268,3.53-2.517,4.602-4.524c0.661-1.239,1.356-2.735,0.959-4.763
	c-0.148-0.754-0.281-1.604-0.345-2.587c-0.013-0.192-0.383,0.012-0.57-0.055c-0.461-0.162-0.602-0.722-0.467-1.119
	c0.157-0.466-0.014-0.929-0.18-1.32c-0.197-0.462-0.782-0.605-1.713-0.382c-0.351,0.229-0.755,0.82-1.258,1.318
	c-0.163,0.162-0.479-0.062-0.433-0.246c0.255-1.002,0.997-1.733,1.943-2.149c0.781-0.345,1.76-0.392,2.375,0.25
	c0.161-0.071,0.465-0.368,0.672-0.147c0.249,0.266-0.19,0.528-0.198,0.837c-0.006,0.248,0.231-0.031,0.328-0.082
	c0.25-0.132,0.346,0.392,0.447,0.218c1.297-2.209,2.558-4.384,2.775-7.594c0.066-0.99-0.064-1.859-0.253-2.534
	c-1.294-0.029-2.458,0.032-3.482,0.236c-0.986,0.196-1.945,0.539-2.906,0.098c-0.343-0.157,0.176-0.704-0.064-0.703
	c-1.381,0.005-2.43-0.44-3.332-1.111c-0.364-0.627-1.329-1.311-2.391-1.012c-0.136,0.039-0.31-0.229-0.381-0.415
	c-0.357,0.145-0.823,0.232-1.113,0.025c-1.126-0.801-2.428-1.613-2.181-3.754c0.021-0.192,0.281-0.473,0.541-0.58
	c0.21-0.087,0.446,0.31,0.486,0.572c0.091,0.603,0.101,1.311,0.382,1.441c1.867,0.11,3.373,0.38,5.08,0.295
	c0.157-0.008,0.386,0.245,0.278,0.496c0.391-0.062,0.793-0.377,1.158-0.288c0.742,0.183,1.344-0.189,2.115-0.508
	c0.083-0.034,0.443-0.089,0.563,0.322c-0.002-0.008-0.06,0.478,0.175,0.135c0.365,0.076,0.795,0.249,1.173,0.039
	c1.254-0.697,2.33-1.865,3.01-3.319c0.096-0.204,0.536-0.48,0.513-0.264c-0.163,1.512-0.771,2.718-1.632,3.558
	c-0.06,0.059-0.47,0.563-0.205,0.361c0.816-0.618,1.549-1.261,2.004-2.036c0.1-0.17,0.415,0.011,0.382,0.175
	c-0.162,0.788-0.505,1.423-0.94,2.068c-0.018,0.026-0.291,0.433,0.076,0.216c0.54-0.319,1.107-0.732,1.884-1.111
	c0.05-0.024,0.325,0.192,0.257,0.437c-0.231,0.83-0.858,1.409-1.29,2.118c1.516,0.043,2.207-0.769,2.715-1.695
	c0.405-0.739,0.089-1.706-0.06-2.795c-1.477-1.443-3.481-2.854-6.355-3.191c-2.886-1.367-5.779-2.756-9.749-2.985
	c-1.843-0.106-3.589,0.144-5.217,0.507c-2.148,0.48-3.593,1.785-4.656,3.484c-0.44,0.702-1.1,1.247-1.732,1.801
	c-1.266,1.104-1.771,2.883-2.346,4.734c-0.313,2.201-0.504,4.456-1.061,6.43c-0.687,1.263-2.535,2.141-4.405,1.541
	c0.261,1.438,0.759,2.738,1.583,3.556c0.243,0.24,0.493,0.519,0.386,0.775c-0.09,0.216-0.407,0.224-0.648,0.423
	c0.311,0.479,0.845,0.698,1.393,1.117c0.035,0.027,0.583-0.076,0.39,0.272c0.306,0.066,0.659,0.298,0.863,0.605
	c0.134,0.2-0.116,0.365-0.258,0.395c-0.289,0.06-0.598-0.184-0.922-0.274c-0.111-0.031-0.42-0.051-0.365,0.044
	C39.793,28.497,41.299,29.931,43.283,30.806z M57.425,42.747c-0.382-0.014-0.658,0.31-0.853,0.62
	c-0.111,0.178-0.393,0.286-0.435,0.488c-0.109,0.531,0.311,1.003,0.375,1.469c-0.377,0.6-0.951,1.125-1.062,1.887
	c-0.06,0.415-0.688,0.604-1.104,0.729c-0.125,0.038-0.371-0.181-0.472,0.039c-0.241,0.528-0.911,0.571-1.618,0.498
	c-0.17-0.017-0.5-0.373-0.818-0.507c-0.278-0.116-0.629,0.296-0.943,0.285c-0.418-0.015-0.792-0.146-1.13-0.379
	c-0.247-0.171-0.309-0.581-0.535-0.849c-0.38,0.112-0.753-0.113-1.001-0.388c-0.375-0.413-0.719-1.076-0.399-1.782
	c-0.681-0.458-1.217-1.52-0.712-2.421c-0.325-0.028-0.404,0.3-0.398,0.272c-0.664,2.88-0.574,5.836-0.492,9.049
	c0.046,1.812,0.286,3.536,0.794,4.981c0.07,0.2,0.224,0.455,0.105,0.628c-0.254,0.368-0.763,0.409-1.14,0.707
	c-0.533,0.041-0.928,0.535-1.729,0.451c-0.037-1.768-0.297-3.518-1.081-4.598c-0.678-0.449-0.539-1.803-0.001-2.44
	c0.113-0.827,0.358-1.677,0.608-2.414c1.058-3.116,1.564-8.16,0.304-11.62c-0.085-0.233-0.555-0.564-0.209-0.861
	c0.816-0.7,1.338-1.728,1.941-2.647c0.143-0.216-0.021-0.354-0.264-0.252c-1.838,0.78-3.63,1.663-5.318,2.563
	c-0.86,0.459-1.91,0.109-2.945-0.003c-2.349-0.255-3.96-1.338-5.99-1.991c-1.165-0.125-2.321-0.167-3.562-0.078
	c-0.634,0.046-1.221,0.28-1.79,0.434c-0.294,0.079-0.652-0.175-0.54-0.462c0.14-0.356,0.509-0.525,0.844-0.675
	c0.521-0.231,1.101-0.427,1.817-0.467c3.782-0.207,6.33,1.02,9.15,1.793l1.609,0.276c1.514-0.218,2.702-0.946,3.956-1.596
	c0.179-0.093-0.167-0.431-0.325-0.465l-1.908-0.416c-2.204,0.351-4.229-0.148-5.845-0.678c-0.112-0.037-0.269-0.109-0.206-0.278
	c0.108-0.29,0.447-0.187,0.594-0.157c1.476,0.294,2.915,0.596,4.621,0.628c0.148-0.316-0.226-0.427-0.301-0.497
	c-3.178-2.955-10.956-4.164-14.996-1.373c-0.742,0.514-1.486,1.026-1.856,1.813l-2.682-0.006c-1.524,0.924-2.481,2.614-3.011,4.445
	c-0.276,0.953-0.412,2.08-0.499,3.177c-0.165,2.078,0.012,4.309,0.158,6.281c0.101,1.362,0.29,2.368,0.554,3.435
	c0.064,0.262,0.319,0.518,0.59,0.563c0.309,0.051,0.608,0.214,0.829,0.437c0.73,0.739,1.582,1.435,2.111,2.359
	c0.112,0.196-0.063,0.485-0.28,0.421c-0.688-0.205-1.204-0.792-1.431-1.355c-0.807-0.786-1.84-1.248-3.001-1.456
	c-0.638-0.114-0.923,0.502-1.063,0.979c-0.832,2.813,0.597,5.211,1.932,6.657c0.6,0.648,1.289,1.457,2.523,1.385
	c0.651-0.038,1.202-0.559,1.33-1.061c0.199-0.001,0.342-0.022,0.458,0.088c0.424,0.401,0.271,1.163-0.133,1.509
	c1.807,3.376,3.289,7.157,4.781,10.764c1.15,1.505,2.452,2.817,4.781,3.37c1.231-0.974,2.656-2.086,4.096-3.093
	c3.454-2.417,6.71-5.052,8.603-9.062c0.155-0.329,0.309-0.669,0.355-1.055c-1.061,0.37-2.18,0.739-2.938,1.315
	c-0.21,0.158-0.685-0.164-1.027-0.03c-1.637,0.638-3.036,1.639-5.34,1.688c-1.703-0.261-2.832-1.206-4.284-1.762
	c-0.799-0.306-1.37-0.824-2.243-1.08c-0.278-0.082-0.511,0.176-0.751,0.234c-0.331,0.08-0.681-0.235-0.665-0.549
	c0.017-0.299,0.381-0.435,0.601-0.549c0.922-0.479,2.299-0.486,3.361-0.831c0.198-0.064,0.547,0.222,0.491,0.449
	c-0.074,0.298-0.355,0.378-0.576,0.528c-0.168,0.114-0.89,0.241-1.219,0.321c0.811,0.651,1.973,0.854,2.823,1.349
	c0.697,0.405,1.438,0.775,2.452,1.021c1.981-0.168,3.57-0.913,5.164-1.656c0.186-0.087,0.494-0.388,0.239-0.526
	c-0.307-0.167-0.516-0.394-0.678-0.596c-0.102-0.127-0.043-0.424,0.144-0.409c0.951,0.074,2.011,0.248,2.554,0.602
	c2.16-0.82,4.132-1.694,6.082-2.555c0.224-0.099,0.587-0.379,0.519-0.611c-0.345-1.171-0.814-2.229-1.033-3.54
	c-0.056-0.327,0.732-0.351,1.068-0.462c1.121-0.374,2.219-0.755,3.35-1.041c0.165-0.041,0.7,0.011,0.947,0.011
	c0.579,1.146,1.17,2.751,0.772,4.465c-0.296,1.273-1.479,2.021-2.922,2.184c-0.159,0.018-0.158,0.304-0.001,0.318
	c3.101,0.293,4.544-1.685,5.508-3.791c1.76-2.907,2.516-7.947,1.64-12.262C57.18,42.957,57.399,42.864,57.425,42.747z
	 M57.425,42.747c0.376,0.182,0.506-0.357,0.604-0.296c3.422,2.143,6.671,4.1,9.588,6.322c0.299,0.229,0.596,0.478,0.729,0.825
	c0.384,0.995,0.473,1.969,0.567,3.251c0.354,4.745,0.64,9.538,0.532,14.577l0.264,6.553c0.035,3.962-1.342,6.468-2.773,8.914
	c-1.147,1.962-2.279,3.95-3.367,5.935c-0.061,0.11-0.135,0.43-0.108,0.516l0.719,2.388c-0.143,0.823-0.27,1.604-0.342,2.492
	c2.842-0.586,5.221-1.589,8.047-2.044c3.827-0.616,7.164-1.642,11.074-2.206c2.091-0.302,4.305-0.004,5.854,0.814
	c2.225,1.632,3.903,4.869,3.127,8.692c-0.188,3.457-2.083,5.211-4.339,6.623c-0.38,0.238-0.741,0.504-1.144,0.579
	c-5.262,0.982-11.029,1.697-16.456,2.601c-6.362,1.06-12.421,2.399-18.882,3.326c-2.01,0.288-3.742,0.775-5.856,0.859
	c-2.702,0.107-5.337,0.663-8.24,0.503c-3.334-0.185-6.075-0.947-9.046-1.544c-0.697-0.14-1.61-0.138-2.121-0.536
	c-4.041-0.971-8.082-1.992-12.359-2.721c-0.812-0.138-1.601-0.286-2.515-0.249c-2.382,0.098-5.218,0.5-7.152-0.226
	c-0.732-0.275-1.252-0.741-1.711-1.26c-0.505-0.57-1.05-1.126-1.409-1.83c-0.982-1.926-0.79-4.846-0.341-7.156
	c1.207-6.217,2.955-11.761,4.823-17.308c0.141-0.417,0.512-0.761,0.518-1.083c0.045-2.552,0.281-4.679,0.371-7.461
	c1.217-1.582,2.75-3.083,3.822-4.98c0.655-1.159,1.09-2.52,1.866-3.543c0.751-0.99,2.016-1.489,3.206-2.008
	c0.347-0.152,0.86,0.252,1.255,0.288c1.49,0.137,3.037,0.345,4.493,0.342c0.059-0.364-0.021-0.731-0.205-1.026
	c-0.136-0.218-0.516-0.888-0.68-1.163c-1.697,0.552-2.986-0.538-3.847-1.396c-1.702-1.697-3.638-4.729-2.393-7.946
	c0.245-0.632,0.691-1.192,1.311-1.507c0.256-0.13,0.527-0.164,0.871-0.133c-1.618-3.776-1.724-10.117-0.228-14.064
	c0.493-0.758,0.832-1.666,1.418-2.339c0.8-0.918,1.724-1.745,2.938-2.23c0.343-0.137,0.715-0.156,1.091-0.077
	c0.104,0.021,0.303,0.327,0.668,0.002c1.559-1.388,3.641-2.654,6.534-3.176c4.379-0.787,8.368,0.849,10.929,2.776
	c0.625,0.471,1.338,0.807,1.866,1.318c0.799,0.203,1.403,0.529,1.952,0.937c0.33,0.244,0.835,0.147,1.224-0.027
	c0.097-0.044,0.616-0.195,0.295-0.227c-0.788-0.077-1.532-0.349-2.17-0.728c-0.144-0.432-0.447-0.86-0.938-1.017
	c-2.396-0.768-3.791-2.621-4.881-4.816c-0.116-0.233,0.243-0.64,0.132-0.736c-0.595-0.52-1.176-1.116-1.36-2.043
	c-0.068-0.339,0.58-0.517,0.359-0.941c-0.17-0.329-0.397-0.599-0.491-0.984c-0.17-0.698-0.221-1.594-0.157-2.396
	c0.069-0.886,0.4-1.597,0.872-2.106c0.153-0.166,0.35-0.271,0.62-0.197c-0.016,0.633-0.278,1.338,0.023,1.911
	c0.237,0.45,0.806,0.757,1.6,0.562c0.729-2.434,1.035-5.231,1.647-8.005c0.29-1.316,0.64-2.75,1.573-3.604
	c1.199-1.097,2.689-2.029,4.023-2.712c0.354-1.442,1.328-2.28,2.37-2.845c2.112-1.143,4.901-1.894,8.03-1.74
	c4.373,0.217,7.525,1.662,10.646,3.109c0.617,0.053,1.195,0.32,1.704,0.591C69.806,4.644,71.752,5.33,72.776,7
	c0.243,0.397,0.48,0.841,0.559,1.306c0.129,0.772,0.175,1.959-0.159,2.614c-0.322,0.632-0.754,1.231-1.202,1.62
	c0.104,1.511-0.564,2.593-1.325,3.38c-0.33,0.341-0.38,0.88-0.37,1.534c0.022,1.502-0.488,2.6-0.527,4.083
	c-0.004,0.138,0.206,0.256,0.261,0.273c0.45,0.141,0.876-0.061,1.157-0.286c0.22-0.178,0.516-0.038,0.612,0.208
	c0.174,0.445-0.174,0.851-0.452,1.124c-0.698,0.689-1.402,1.27-2.085,1.981c-0.352,0.366-0.02,0.813-0.175,1.241
	c-0.399,1.096-1.389,1.692-2.258,2.322c1.213,4.289-0.58,8.055-2.976,9.766c-1.507,1.617-3.602,2.627-5.466,3.87
	C58.013,42.275,57.632,42.3,57.425,42.747z"/>
</svg>
