<?xml version="1.0" encoding="utf-8"?>
<!-- Generator: Adobe Illustrator 16.0.0, SVG Export Plug-In . SVG Version: 6.00 Build 0)  -->
<!DOCTYPE svg PUBLIC "-//W3C//DTD SVG 1.1//EN" "http://www.w3.org/Graphics/SVG/1.1/DTD/svg11.dtd">
<svg version="1.1" id="Layer_1" xmlns="http://www.w3.org/2000/svg" xmlns:xlink="http://www.w3.org/1999/xlink" x="0px" y="0px"
	 width="42px" height="40.5px" viewBox="0 0 42 40.5" enable-background="new 0 0 42 40.5" xml:space="preserve">
<path fill-rule="evenodd" clip-rule="evenodd" fill="#88aacc" d="M40.5,33H20.785L9,40.5V33H1.5C0.672,33,0,32.328,0,31.5v-30
	C0,0.672,0.672,0,1.5,0h39C41.328,0,42,0.672,42,1.5v30C42,32.328,41.328,33,40.5,33z M39,3H3v27h9v4.5l7.125-4.5H39V3z M9,19.5
	c0-0.829,0.672-1.5,1.5-1.5h12c0.828,0,1.5,0.671,1.5,1.5c0,0.828-0.672,1.5-1.5,1.5h-12C9.672,21,9,20.328,9,19.5z M9,13.5
	c0-0.828,0.672-1.5,1.5-1.5H27c0.828,0,1.5,0.672,1.5,1.5S27.828,15,27,15H10.5C9.672,15,9,14.328,9,13.5z"/>
</svg>
