<?xml version="1.0" encoding="utf-8"?>
<!-- Generator: Adobe Illustrator 16.0.0, SVG Export Plug-In . SVG Version: 6.00 Build 0)  -->
<!DOCTYPE svg PUBLIC "-//W3C//DTD SVG 1.1//EN" "http://www.w3.org/Graphics/SVG/1.1/DTD/svg11.dtd">
<svg version="1.1" id="Layer_1" xmlns="http://www.w3.org/2000/svg" xmlns:xlink="http://www.w3.org/1999/xlink" x="0px" y="0px"
	 width="31.5px" height="36px" viewBox="0 0 31.5 36" enable-background="new 0 0 31.5 36" xml:space="preserve">
<path fill-rule="evenodd" clip-rule="evenodd" fill="#ff4949" d="M21.75,19.5H9V24h21v3H9v9H6v-9H0v-3h6v-4.5H0v-3h6V0h3l0,0h12.75
	c5.385,0,9.75,4.365,9.75,9.75C31.5,15.134,27.135,19.5,21.75,19.5z M21.75,3H9v13.5h12.75c3.728,0,6.75-3.022,6.75-6.75
	S25.478,3,21.75,3z"/>
</svg>
