<?xml version="1.0" encoding="utf-8"?>
<!-- Generator: Adobe Illustrator 19.2.1, SVG Export Plug-In . SVG Version: 6.00 Build 0)  -->
<svg version="1.1" id="Layer_1" xmlns="http://www.w3.org/2000/svg" xmlns:xlink="http://www.w3.org/1999/xlink" x="0px" y="0px"
	 viewBox="0 0 28 28" enable-background="new 0 0 28 28" xml:space="preserve">
	<path d="M22.3,13.4H5.7c-2.6,0-4.7,2.1-4.7,4.8V22c0,2.6,2.1,4.8,4.7,4.8h16.5c2.6,0,4.7-2.1,4.7-4.8v-3.8C27,15.5,24.9,13.4,22.3,13.4z M9.2,16.4H7.7V24H6.2v-7.6H4.7v-1.3h4.5V16.4z M13.5,24h-1.3v-0.7c-0.2,0.3-0.5,0.5-0.8,0.6c-0.3,0.1-0.5,0.2-0.8,0.2c-0.3,0-0.5-0.1-0.7-0.3c-0.2-0.2-0.2-0.5-0.2-0.9v-5.5h1.3v5c0,0.2,0,0.3,0.1,0.3c0.1,0.1,0.1,0.1,0.3,0.1c0.1,0,0.2,0,0.4-0.1c0.1-0.1,0.3-0.2,0.4-0.4v-5h1.3V24z M18.3,22.6c0,0.5-0.1,0.8-0.3,1.1c-0.2,0.2-0.5,0.4-0.9,0.4c-0.3,0-0.5,0-0.7-0.1c-0.2-0.1-0.4-0.2-0.6-0.4V24h-1.3v-8.9h1.3v2.9c0.2-0.2,0.4-0.4,0.6-0.5c0.2-0.1,0.4-0.2,0.6-0.2c0.4,0,0.7,0.1,1,0.4c0.2,0.3,0.3,0.7,0.3,1.2L18.3,22.6L18.3,22.6z M22.9,20.9h-2.5v1.2c0,0.3,0,0.6,0.1,0.7c0.1,0.1,0.2,0.2,0.4,0.2c0.2,0,0.4-0.1,0.5-0.2c0.1-0.1,0.1-0.4,0.1-0.8v-0.3h1.4v0.3c0,0.7-0.2,1.2-0.5,1.5c-0.3,0.3-0.8,0.5-1.5,0.5c-0.6,0-1.1-0.2-1.4-0.5c-0.3-0.4-0.5-0.9-0.5-1.5v-3c0-0.6,0.2-1,0.6-1.4c0.4-0.4,0.9-0.5,1.4-0.5c0.6,0,1.1,0.2,1.4,0.5c0.3,0.3,0.5,0.8,0.5,1.4V20.9z"/>
	<path d="M21,18.4c-0.2,0-0.4,0.1-0.5,0.2c-0.1,0.1-0.1,0.3-0.1,0.6v0.7h1.2v-0.7c0-0.3,0-0.5-0.1-0.6C21.3,18.5,21.2,18.4,21,18.4z"/>
	<path d="M16.4,18.4c-0.1,0-0.2,0-0.3,0.1c-0.1,0-0.2,0.1-0.3,0.2v4.1c0.1,0.1,0.2,0.2,0.3,0.2c0.1,0,0.2,0.1,0.3,0.1c0.2,0,0.3,0,0.4-0.1c0.1-0.1,0.1-0.2,0.1-0.5v-3.4c0-0.2,0-0.4-0.1-0.5C16.7,18.4,16.6,18.4,16.4,18.4z"/>
	<polygon points="7.9,11.1 9.6,11.1 9.6,7 11.5,1.3 9.8,1.3 8.8,5.2 8.7,5.2 7.6,1.3 5.9,1.3 7.9,7.2 	"/>
	<path d="M13.8,11.3c0.7,0,1.2-0.2,1.6-0.5c0.4-0.4,0.6-0.8,0.6-1.5V5.6c0-0.6-0.2-1-0.6-1.4c-0.4-0.3-0.9-0.5-1.5-0.5c-0.7,0-1.2,0.2-1.6,0.5c-0.4,0.3-0.6,0.8-0.6,1.3v3.8c0,0.6,0.2,1.1,0.6,1.5C12.6,11.1,13.1,11.3,13.8,11.3z M13.2,5.5c0-0.2,0.1-0.3,0.2-0.4c0.1-0.1,0.3-0.1,0.4-0.1c0.2,0,0.4,0,0.5,0.1c0.1,0.1,0.2,0.2,0.2,0.4v4c0,0.2-0.1,0.3-0.2,0.5C14.1,10,14,10,13.8,10c-0.2,0-0.3-0.1-0.5-0.2c-0.1-0.1-0.2-0.3-0.2-0.5L13.2,5.5L13.2,5.5z"/>
	<path d="M18.2,11.2c0.3,0,0.6-0.1,0.9-0.2c0.3-0.2,0.6-0.4,0.9-0.7v0.8h1.5V3.9h-1.5v5.5c-0.1,0.2-0.3,0.3-0.5,0.4c-0.2,0.1-0.3,0.2-0.4,0.2c-0.1,0-0.2,0-0.3-0.1c-0.1-0.1-0.1-0.2-0.1-0.4V3.9h-1.5v6.1c0,0.4,0.1,0.8,0.3,1C17.6,11.1,17.8,11.2,18.2,11.2z"/>
</svg>
