<?xml version="1.0" encoding="utf-8"?>
<!-- Generator: Adobe Illustrator 16.0.0, SVG Export Plug-In . SVG Version: 6.00 Build 0)  -->
<!DOCTYPE svg PUBLIC "-//W3C//DTD SVG 1.1//EN" "http://www.w3.org/Graphics/SVG/1.1/DTD/svg11.dtd">
<svg version="1.1" id="Layer_1" xmlns="http://www.w3.org/2000/svg" xmlns:xlink="http://www.w3.org/1999/xlink" x="0px" y="0px"
	 width="19.997px" height="19px" viewBox="0 0 19.997 19" enable-background="new 0 0 19.997 19" xml:space="preserve">
<path fill-rule="evenodd" clip-rule="evenodd"  d="M9.999,0l3.295,5.971l6.703,1.286l-4.666,4.977L16.178,19
	l-6.179-2.896L3.819,19l0.847-6.766L0,7.257l6.703-1.286L9.999,0"/>
<path fill-rule="evenodd" clip-rule="evenodd" fill="#FFFFFF" d="M9.999,3.687l2.142,3.771l4.358,0.813l-3.034,3.145l0.551,4.271
	L9.999,13.86l-4.018,1.827l0.55-4.271L3.499,8.271l4.357-0.813L9.999,3.687"/>
</svg>
