<svg xmlns="http://www.w3.org/2000/svg" width="11.969" height="14" viewBox="0 0 11.969 14">
  <defs>
    <style>
      .cls-1 {
        fill: #fff;
        fill-rule: evenodd;
      }
    </style>
  </defs>
  <path id="bus" class="cls-1" d="M4.988,15.024H4.011a1.4,1.4,0,0,1-.021-0.164c0-1.546.006-3.092,0-4.639a13.525,13.525,0,0,1,.487-2.943c0.164-.746.349-1.488,0.5-2.236A1.537,1.537,0,0,1,5.58,4.1,4.605,4.605,0,0,1,7.6,3.277,11.709,11.709,0,0,1,13.2,3.5a4.552,4.552,0,0,1,.755.323,1.9,1.9,0,0,1,1.073,1.4c0.245,1.254.573,2.492,0.83,3.745a7.277,7.277,0,0,1,.11,1.389c0.013,1.471.005,2.943,0,4.414,0,0.073-.009.146-0.015,0.242H14.969c0,0.378.019,0.735,0,1.088a0.988,0.988,0,0,1-1.974-.059c-0.011-.331,0-0.662,0-1.009H6.972c0,0.355.013,0.7,0,1.049a0.986,0.986,0,0,1-1.856.4,1.5,1.5,0,0,1-.119-0.55C4.974,15.644,4.988,15.346,4.988,15.024Zm4.981-4.987h4.024a0.527,0.527,0,0,0,.61-0.7c-0.169-.94-0.348-1.878-0.531-2.816a0.507,0.507,0,0,0-.59-0.477q-3.5,0-7,0a0.507,0.507,0,0,0-.591.476C5.709,7.454,5.53,8.392,5.36,9.332a0.526,0.526,0,0,0,.609.7h4ZM9.977,4.293c-0.807,0-1.615,0-2.422,0a0.4,0.4,0,0,0-.422.242,0.387,0.387,0,0,0,.444.512q2.4,0,4.794,0a0.388,0.388,0,1,0,0-.753Q11.176,4.292,9.977,4.293Zm-4,7.238a1,1,0,1,0,1.008.985A0.995,0.995,0,0,0,5.976,11.531Zm8.007,0a1,1,0,1,0,1,.994A0.994,0.994,0,0,0,13.983,11.531Z" transform="translate(-4 -3.031)"/>
</svg>
