<svg xmlns="http://www.w3.org/2000/svg" width="17.938" height="13.969" viewBox="0 0 17.938 13.969">
  <defs>
    <style>
      .cls-1 {
        fill: #fff;
        fill-rule: evenodd;
      }
    </style>
  </defs>
  <path id="car" class="cls-1" d="M2.154,14c-0.289,0-.531,0-0.773,0a0.305,0.305,0,0,1-.356-0.356c0-1.12-.016-2.24.01-3.359A1.905,1.905,0,0,1,2.944,8.4c0.083,0,.167,0,0.279,0,0.152-.6.3-1.192,0.452-1.785S3.977,5.4,4.13,4.8a2.574,2.574,0,0,1,2.545-2q3.305-.009,6.61,0A2.574,2.574,0,0,1,15.843,4.82q0.438,1.735.874,3.471c0.007,0.027.02,0.052,0.044,0.114,0.105,0,.224,0,0.342,0a1.9,1.9,0,0,1,1.823,1.787c0.035,1.156.014,2.314,0.017,3.471a0.3,0.3,0,0,1-.35.333c-0.242,0-.484,0-0.778,0,0,0.423.018,0.831,0,1.236a1.667,1.667,0,0,1-3.327.009c-0.022-.407,0-0.816,0-1.235H5.488c0,0.415.018,0.823,0,1.23a1.667,1.667,0,0,1-3.327,0C2.136,14.838,2.154,14.437,2.154,14ZM14.435,8.389c-0.26-1.037-.513-2.058-0.774-3.077a0.369,0.369,0,0,0-.4-0.278H6.7a0.393,0.393,0,0,0-.416.336c-0.058.235-.119,0.469-0.178,0.7-0.19.766-.379,1.532-0.573,2.313h8.9ZM3.833,9.8a1.4,1.4,0,1,0,1.391,1.412A1.394,1.394,0,0,0,3.833,9.8Zm12.329,0a1.4,1.4,0,1,0,1.389,1.413A1.395,1.395,0,0,0,16.162,9.8Z" transform="translate(-1.031 -2.813)"/>
</svg>
