<svg xmlns="http://www.w3.org/2000/svg" width="12" height="14" viewBox="0 0 12 14">
  <defs>
    <style>
      .cls-1 {
        fill: #fff;
        fill-rule: evenodd;
      }
    </style>
  </defs>
  <path id="train" class="cls-1" d="M7.7,15.045c-0.479-.113-0.961-0.2-1.425-0.345a3.106,3.106,0,0,1-1.349-.875A2,2,0,0,1,4.4,12.387c0.007-1.933,0-3.866,0-5.8,0-.25.018-0.5,0-0.75A2.322,2.322,0,0,1,5.82,3.494a3.852,3.852,0,0,1,1.846-.479c1.828-.012,3.656-0.02,5.484,0a3.75,3.75,0,0,1,2.632,1.049,1.932,1.932,0,0,1,.632,1.446q0,3.487,0,6.974A2.1,2.1,0,0,1,15.4,14.252a3.9,3.9,0,0,1-1.926.7c-0.122.012-.243,0.027-0.417,0.046l1.08,1.027c0.175,0.167.362,0.323,0.522,0.5a0.362,0.362,0,0,1,.1.3,0.389,0.389,0,0,1-.292.164C13.6,17,12.73,17,11.862,17H6.453a0.788,0.788,0,0,1-.271-0.026C5.991,16.9,5.977,16.7,6.155,16.53c0.421-.4.847-0.8,1.27-1.205C7.526,15.229,7.622,15.128,7.7,15.045Zm7.2-10.026H5.92V8.991h8.989V5.019Zm-4.5,5.482a1.5,1.5,0,1,0,1.5,1.509A1.487,1.487,0,0,0,10.413,10.5Z" transform="translate(-4.406 -3)"/>
</svg>
