<svg id="trans-in" xmlns="http://www.w3.org/2000/svg" width="19" height="7" viewBox="0 0 19 7">
  <defs>
    <style>
      .cls-1, .cls-2 {
        fill: #fff;
      }

      .cls-1 {
        fill-rule: evenodd;
      }
    </style>
  </defs>
  <path class="cls-1" d="M101,2408.19h4.931V2411l6.069-3.5-6.069-3.5v2.81H101v1.38Z" transform="translate(-101 -2404)"/>
  <circle class="cls-2" cx="16.5" cy="3.5" r="2.5"/>
</svg>
